# MicroBlocks translation file
# Last updated: July 07 2020

#########################
# Blocks and categories #
#########################

Output

set user LED _

say _

graph _

Input

button A

button B

microseconds

milliseconds

board type

Pins

read digital pin _

read analog pin _

set digital pin _ to _

set pin _ to _

analog pins

digital pins

Control

when started

when button _ pressed

forever _

repeat _ _

wait _ millisecs

if _ _

else if _ _

if _ _ else _

when _

wait until _

wait _ microsecs

return _

when _ received

broadcast _

comment _

for _ in _ _

repeat until _ _

stop this task

stop other tasks

stop all

last message

call _

with _

Operators

_ mod _

abs _

random _ to _

not _

_ and _

and _

_ or _

or _

_ is a _

boolean

number

string

list

Advanced:

hex _

Variables

# Buttons on top of "Variables" category

Add a variable

Delete a variable

# New variable dialog

New variable name?

set _ to _

change _ by _

initialize local _ to _

Data

list

length of _

item _ of _

replace item _ of list _ with _

delete item _ of list _

add _ to list _

join _ _

copy _ from _

to _

find _ in _

starting at _

join items of list _

separator _

unicode _ of _

string from unicode _

new list length _

new byte array _

free memory

My Blocks

# Buttons on top of "My Blocks" category

Add a command block

Add a reporter block

# Make a block dialog

Enter function name:

Comm

i2c get device _ register _

i2c set device _ register _ to _

i2c device _ read list _

i2c device _ write list _

spi send _

spi receive

spi setup speed _

mode _

rpi channel _

spi exchange bytes _

print _

no op

ignore

##############
# Primitives #
##############

# These are all mostly hidden from end users

draw shape _ at x _ y _

shape for letter _

send NeoPixel rgb _

has tone support

play tone pin _ frequency _

has WiFi support

start WiFi _ password _

stop WiFi

WiFi status

my IP address

radio send number _

radio send string _

radio send pair _ = _

radio message received?

radio last number

radio last string

radio last message type

radio set group _

radio set channel (0-83) _

radio set power (0-7) _

radio last signal strength

radio receive packet _

radio send packet _

disable radio

#############
# Libraries #
#############

Basic Sensors

tilt x

tilt y

tilt z

acceleration

light level

temperature (°C)

####
# NeoPixel library

NeoPixel

set NeoPixels _ _ _ _ _ _ _ _ _ _

clear NeoPixels

set NeoPixel _ color _

set all NeoPixels color _

rotate NeoPixels by _

color r _ g _ b _ (0-31)

random color

attach _ LED NeoPixel strip to pin _

has white _

PIR

PIR at pin _ detected movement

####
# Citilab ED1 board libraries

ED1 Stepper Motor

move motor _ _ steps _

move motor 1 _ and motor 2 _ _ steps

move motor _ angle _ °

move motor _ _ complete turns

stop steppers

clockwise

counter-clockwise

ED1 Buttons

button OK

button X

button up

button down

button left

button right

capacitive sensor _

set capacitive threshold to _

####
# BirdBrain Technologies libraries

Hummingbird LED _ _ %

Hummingbird Tri-LED _ R _ % G _ % B _ %

Hummingbird Position Servo _ _ °

Hummingbird Rotation Servo _ _ %

Hummingbird _ _

Hummingbird Battery (mV)

Light

Distance (cm)

Dial

Sound

Other

Finch Beak Red _ Green _ Blue _

Finch Tail _ Red _ Green _ Blue _

Finch Move _ _ cm at _ %

Finch Turn _ _ ° at _ %

Finch Wheels L _ % R _ %

Finch Stop

Finch Distance (cm)

Finch _ Light

Finch _ Line

Finch Reset Encoders

Finch _ Encoder

Finch Accelerometer _

Finch Battery

All

Forward

Backward

Right

Left

Beak Up

Beak Down

Tilt Left

Tilt Right

Level

Upside Down

x

y

z

strength

####
# Ultrasound distance library

distance (cm) trigger _ echo _

####
# Infrared remote library

IR Remote

receive IR code

receive IR code from device _

test IR

attach IR receiver to pin _

####
# Radio comm library
# Allows micro:bit boards to exchange messages
# All of its blocks are primitive (see "Primitives" section)

Radio

####
# Text scrolling library
# Scrolls text on 5x5 LED displays and simulated ones

Scrolling

scroll text _

scroll number _

pausing _ ms

stop scrolling

####
# Servo motor library

Servo

set servo _ to _ degrees (-90 to 90)

set servo _ to speed _ (-100 to 100)

stop servo _

####
# 5x5 LED display library
# Supports the micro:bit display, but also simulated 5x5 displays on boards
# with differently sized LED arrays, NeoPixel arrays or TFT displays

LED Display

display _

clear display

plot x _ y _

unplot x _ y _

display character _

####
# TFT display library

enable TFT _

TFT width

TFT height

set TFT pixel x _ y _ to _

draw line on TFT from x _ y _ to x _ y _ color _

draw rectangle on TFT at x _ y _ width _ height _ color _

draw rounded rectangle on TFT at x _ y _ width _ height _ radius _ color _

draw circle on TFT at x _ y _ radius _ color _

draw triangle on TFT at x _ y _ , x _ y _ , x _ y _ color _

filled _

write _ on TFT at x _ y _ color _

scale _ wrap _

####
# Tone library
# Generates music tones on buzzers

Tone

attach buzzer to pin _

play note _ octave _ for _ ms

play frequency _ for _ ms

play midi key _ for _ ms

####
# Turtle geometry library

Turtle

home

move _

turn _ degrees

turn _ / _ of circle

pen down

pen up

set pen color to _

set pen to random color

fill display with _

go to x _ y _

point in direction _

####
# File system library

Files

open file _

close file _

delete file _

append line _ to file _

append bytes _ to file _

end of file _

next line of file _

next _ bytes of file _

starting at _

file names

size of file _

file system info

####
# WiFi library

WiFi

wifi connect to _ password _ try _ times

wifi create hotspot _ password _

IP address

####
# Motion library
# Counts steps and detects motion via the internal accelerometer

Motion

motion

start step counter

step count

clear step count

set step threshold _ (0-50)

####
# Button Events library

Button Events

button _ double pressed

button _ long pressed

button _ pressed

####
# Calliope board library

Calliope set LED red _ green _ blue _

Calliope set speaker _

Calliope loudness

####
# Circuit Playground Express board library

Circuit Playground set speaker _

Circuit Playground slide switch

####
# DotStar LED library

attach _ DotStar LEDs to data pin _ clock pin _

set all DotStar LEDs to r _ g _ b _

set DotStar LED _ to r _ g _ b _

set DotStar brightness _

####
# BME280 environmental sensor

bme280 connected

bmp280 connected

bmx280 temperature

bmx280 pressure

bme280 humidity

####
# TCS34725 color sensor

TCS34725 connected

TCS34725 rgb

color _ name

####
# DHT11 environmental sensor

temperature (Celsius) DHT11 pin _

humidity DHT11 pin _

temperature (Celsius) DHT22 pin _

humidity DHT22 pin _

####
# PN532 RFID reader

read PN532 RFID

RFID _ = _

get PN532 firmware version

####
# HTTP libraries

HTTP client

_ data _ to http܃// _

HTTP server

start HTTP server

HTTP server request

respond _ to HTTP request

with body _

and headers _

body of request _

path of request _

method of request _

####
# Web Things library

Web Thing

set thing name to _

set thing capability to _

set boolean property _ title _ @Type _

set string property _ title _ @Type _

set number property _ title _ @Type _

set number property _ title _ min _ max _ @Type _

read only _

register event _ type _

start WebThing server

trigger event _

thing description JSON

properties JSON

event definitions JSON

events JSON

####
# MiKe Robot library

MiKe front obstacle (cm)

MiKe _ obstacle ?

MiKe black line on _ ?

MiKe back light

MiKe IR

MiKe digital D8 sensor

MiKe stop motors

MiKe Robot go _ at _ %

MiKe Robot speed _ %

MiKe Robot direction _

MiKe turn _ motor _

MiKe speed _ motor at _ %

MiKe front lights off

MiKe front lights to _

MiKe circle lights off

MiKe circle ligths to _

MiKe circle light _ (1-18) to _

MiKe rotate lights by _

MiKe digital D8 to _

####
# DrawBot Library
# A CoreXY plotter library that supports turtle geometry

plotter move X _ Y _

plotter move _ steps

plotter turn _ degrees

plotter turn _ / _ of circle

plotter point in direction _

plotter pen down

plotter pen up

plotter stop

set plotter speed to _ %

##################
# MicroBlocks UI #
##################

# buttons, error & info messages, dialog boxes, etc

New

Open

Open from board

Information

Plug in the board.

Reading project from board...

Loading project...

Found a newer version of

Do you want me to update the one in the project?

Save

Connect

disconnect

Serial port:

other...

none

Port name?

Board type:

Select board:

Could not read:

by

Created with GP

More info at http://microblocks.fun

Function "

" is too large to send to board.

Script is too large to send to board.

Use "Connect" button to connect to a MicroBlocks device.

No boards found; is your board plugged in?

For AdaFruit boards, double-click reset button and try again.

The board is not responding.

Try to Install MicroBlocks on the board?

The MicroBlocks in your board is not current

Try to update MicroBlocks on the board?

Stop

Start

Quit MicroBlocks?

Discard current project?

# Scripting area right-click context menu

set block size...

make blocks bigger or smaller

clean up

arrange scripts

undrop (ctrl-Z)

copy all scripts to clipboard

paste all scripts

paste script

save a picture of all scripts

about...

About MicroBlocks

virtual machine version

update firmware on board

show data graph

set serial delay

firmware version

start WebThing server

stop WebThing server

HTTP Server

MicroBlocks HTTP Server listening on port 6473

disable autoloading board libraries

enable autoloading board libraries

enable PlugShare when project empty

disable PlugShare when project empty

erase flash and update firmware on ESP board

Use board type

Plug in the board.

Wiping board...

(press ESC to cancel)

Done!

download and install latest VM

Select board type:

Uploading MicroBlocks to board...

copy data to clipboard

clear data

clear memory and variables

show advanced blocks

export functions as library

hide advanced blocks

put file on board

get file from board

Data Graph

Graph

clear graph

zero at bottom

export data to CSV file

import data from CSV file

copy graph data to clipboard

show instructions

show compiled bytes

expand

collapse

rename...

show block definition...

show the definition of this block

delete block definition...

delete the definition of this block

duplicate

duplicate this block

delete block

delete this block

just this one block

copy to clipboard

copy these blocks to the clipboard

duplicate all

duplicate these blocks

extract block

pull out this block

save picture of script

save picture of script with result

save a picture of this block definition as a PNG file

save a picture of these blocks as a PNG file

copy script

delete

Input type:

string only

string or number

number only

define

number/string

editable number or string

label

input

hide block definition

Are you sure you want to remove this block definition?

Language

Custom...

Obsolete

OK

Ok

Yes

No

Cancel

Okay

Confirm

# File picker and library dialogs

Libraries

Examples

Desktop

Computer

Cloud

File

File Open

File Save

File name:

New Folder

by

Depends:

Tags:

Path, name or URL for library?

Invalid URL

Could not fetch library.

Host does not exist or is currently down.

File not found in server.

Server expects HTTPS, and MicroBlocks doesn't currently support it.

library information

built-in library

Dependency path, name or URL?

Tag name?
